<svg xmlns="http://www.w3.org/2000/svg" width="56" height="55" viewBox="0 0 56 55">
  <g fill="#4EC500">
    <path d="M55.0667031,2.79661387 L52.2667031,2.79661387 L52.2667031,0.93216821 C52.2667031,0.372845435 51.8934063,1.45540552e-16 51.3334063,1.45540552e-16 L45.7334063,1.45540552e-16 L38.2667031,1.45540552e-16 L34.5334063,1.45540552e-16 C31.7845938,1.45540552e-16 29.3721094,1.50470935 28.0760156,3.72910981 C26.3639688,1.18845165 22.4415625,0 19.6,0 L4.66670313,0 C4.10670313,0 3.73340625,0.372845435 3.73340625,0.93216821 L3.73340625,2.79661387 L0.93340625,2.79661387 C0.373296875,2.79661387 0,3.16945931 0,3.72878208 L0,49.4067723 C0,49.966095 0.373296875,50.3389405 0.933296875,50.3389405 L19.5065938,50.3389405 C22.3065938,50.8982632 24.8265938,51.5507701 26.5065938,53.6948771 L27.1619688,54.5131052 C27.2927813,54.7869767 27.551125,54.9636222 27.8902969,54.9947563 C27.8920469,54.9949748 27.8937969,54.9953026 27.8956563,54.9954118 C27.9296719,54.9983614 27.9644531,55 28,55 C28.0355469,55 28.0703281,54.9984706 28.1043438,54.9954118 C28.1060938,54.9953026 28.1078438,54.9948656 28.1097031,54.9947563 C28.4487656,54.9636222 28.7071094,54.7870859 28.8380313,54.5131052 L29.4934063,53.6948771 C31.1734063,51.5507701 33.6934063,50.8982632 36.4934063,50.3389405 L55.0667031,50.3389405 C55.6267031,50.3389405 56,49.966095 56,49.4067723 L56,3.72878208 C56,3.16945931 55.6267031,2.79661387 55.0667031,2.79661387 Z M44.8,1.86433642 L44.8,7.6440415 L42.7467031,5.03390497 C42.56,4.75424358 42.28,4.66105954 42,4.66105954 C41.72,4.66105954 41.44,4.75424358 41.2532969,4.94072092 L39.2,7.55085746 L39.2,1.86433642 L44.8,1.86433642 Z M34.5332969,1.86433642 L37.3332969,1.86433642 L37.3332969,10.254178 C37.3332969,10.6270235 37.6132969,10.9999782 37.9865938,11.0931622 C38.3598906,11.2796395 38.7332969,11.0931622 39.0132969,10.8135008 L42,7.08471873 L44.9867031,10.8135008 C45.1734063,11.0931622 45.4534063,11.1863462 45.7334063,11.1863462 C45.8267031,11.1863462 45.9201094,11.1863462 46.0134063,11.0931622 C46.3867031,10.9999782 46.6667031,10.6270235 46.6667031,10.254178 L46.6667031,1.86433642 L50.4,1.86433642 L50.4,3.72878208 L50.4,43.8135445 L36.4,43.8135445 C36.3067031,43.8135445 36.3067031,43.8135445 36.2132969,43.8135445 C33.4791406,44.2954142 30.9532344,44.986156 28.9332969,46.8373833 L28.9332969,7.45756417 C28.9332969,4.38128891 31.4532969,1.86433642 34.5332969,1.86433642 Z M5.6,1.86433642 L19.6,1.86433642 C22.68,1.86433642 27.0667031,3.54230474 27.0667031,6.52539596 L27.0667031,7.45756417 L27.0667031,46.8461227 C25.8147969,45.717973 24.3565,45.0436176 22.8019531,44.5614202 C21.83475,44.2565238 20.8245625,44.027988 19.7867031,43.8135445 C19.6934063,43.8135445 19.6934063,43.8135445 19.6,43.8135445 L5.6,43.8135445 L5.6,3.72878208 L5.6,1.86433642 Z M19.7867031,48.474604 C19.6934063,48.474604 19.6934063,48.474604 19.6,48.474604 L1.86670312,48.474604 L1.86670312,4.66095029 L3.73340625,4.66095029 L3.73340625,44.7457127 C3.73340625,45.3050355 4.10670313,45.6778809 4.66670313,45.6778809 L19.5067031,45.6778809 C19.7692031,45.7303174 20.0292969,45.7835186 20.2863281,45.8387955 C20.4577188,45.8756103 20.6277969,45.913299 20.7965625,45.9521894 C21.4712969,46.1078603 22.1230625,46.2829764 22.743,46.4993863 C22.8979844,46.5534614 23.051,46.6101584 23.2019375,46.6698049 C23.5791719,46.8189212 23.9431719,46.9861719 24.2918594,47.1771281 C24.5010938,47.2917238 24.7046406,47.4147311 24.9022813,47.547461 C25.4952031,47.9456507 26.0342031,48.4306885 26.5067031,49.0337083 L27.0667031,49.7328618 L27.0667031,51.5069637 C25.0283906,49.670375 22.4424375,49.0373133 19.7867031,48.474604 Z M54.1332969,48.474604 L36.4,48.474604 C36.3067031,48.474604 36.3067031,48.474604 36.2132969,48.474604 C33.4791406,48.9564737 30.9532344,49.6472155 28.9332969,51.4984428 L28.9332969,49.7330803 L29.4932969,49.0339268 C31.1732969,46.8898198 33.6932969,46.2373129 36.4932969,45.6779902 L51.3332969,45.6779902 C51.8932969,45.6779902 52.2665938,45.3051447 52.2665938,44.745822 L52.2665938,4.66095029 L54.1332969,4.66095029 L54.1332969,48.474604 L54.1332969,48.474604 Z"/>
    <path d="M9.99998047 10L14.0000195 10C14.6000313 10 15 9.60002344 15 9 15 8.39997656 14.6000313 8 14.0000195 8L9.99998047 8C9.39996875 8 9 8.39997656 9 9 9 9.60002344 9.39996875 10 9.99998047 10zM17.9999707 10L24.0000293 10C24.6000352 10 25 9.60002344 25 9 25 8.39997656 24.6000352 8 24.0000293 8L17.9999707 8C17.3999648 8 17 8.39997656 17 9 17 9.60002344 17.3999648 10 17.9999707 10zM24.0000293 18L17.9999707 18C17.3999648 18 17 18.3999766 17 19 17 19.6000234 17.3999648 20 17.9999707 20L24.0000293 20C24.6000351 20 25 19.6000234 25 19 25.0001172 18.3999766 24.6000351 18 24.0000293 18zM9.89996838 15L17.1000316 15C17.6400338 15 18 14.6000234 18 14 18 13.3999766 17.6400338 13 17.1000316 13L9.89996838 13C9.35996627 13 9.00000002 13.3999766 9.00000002 14 8.99989455 14.6000234 9.35996627 15 9.89996838 15zM9.99998049 20L14.0000195 20C14.6000313 20 15 19.6000234 15 19 15 18.3999766 14.6000313 18 14.0000195 18L9.99998049 18C9.39996877 18 9.00000003 18.3999766 9.00000003 19 8.99988284 19.5999062 9.39996877 20 9.99998049 20zM9.93746567 24L23.0625343 24C23.6250357 24 24 23.6000234 24 23 24 22.3999766 23.6250357 22 23.0625343 22L9.93746567 22C9.37496429 22 9 22.3999766 9 23 9 23.6000234 9.37496429 24 9.93746567 24zM9.89996836 38L17.1000316 38C17.6400338 38 18 37.6000234 18 37 18 36.3999766 17.6400338 36 17.1000316 36L9.89996836 36C9.35996625 36 9 36.3999766 9 37 9 37.6000234 9.35996625 38 9.89996836 38zM9.89996838 32L17.1000316 32C17.6400338 32 18 31.6000234 18 31 18 30.3999766 17.6400338 30 17.1000316 30L9.89996838 30C9.35996627 30 9.00000002 30.3999766 9.00000002 31 8.99989455 31.6000234 9.35996627 32 9.89996838 32zM31.749978 10L33.250022 10C33.7000264 10 34 9.60002344 34 9 34 8.39997656 33.7000264 8 33.250022 8L31.749978 8C31.2999736 8 31 8.39997656 31 9 31 9.60002344 31.2999736 10 31.749978 10zM31.9999805 15L36.0000195 15C36.6000313 15 37 14.6000234 37 14 37 13.3999766 36.6000313 13 36.0000195 13L31.9999805 13C31.3999688 13 31 13.3999766 31 14 30.9998828 14.6000234 31.3999688 15 31.9999805 15zM39.9999707 15L46.0000293 15C46.6000352 15 47 14.6000234 47 14 47 13.3999766 46.6000352 13 46.0000293 13L39.9999707 13C39.3999648 13 39 13.3999766 39 14 39 14.6000234 39.3999648 15 39.9999707 15zM31.9999707 30L38.0000293 30C38.6000352 30 39 29.6000234 39 29 39 28.3999766 38.6000352 28 38.0000293 28L31.9999707 28C31.3999649 28 31 28.3999766 31 29 30.9998828 29.6000234 31.3999649 30 31.9999707 30zM46.0000195 28L41.9999805 28C41.3999687 28 41 28.3999766 41 29 41 29.6000234 41.3999687 30 41.9999805 30L46.0000195 30C46.6000312 30 47 29.6000234 47 29 47.0001172 28.4000938 46.6000312 28 46.0000195 28zM37.8999684 20L45.1000316 20C45.6400338 20 46 19.6000234 46 19 46 18.3999766 45.6400338 18 45.1000316 18L37.8999684 18C37.3599663 18 37 18.3999766 37 19 36.9998946 19.5999062 37.3599663 20 37.8999684 20zM22.250022 13L20.749978 13C20.2999736 13 20 13.3999766 20 14 20 14.6000234 20.2999736 15 20.749978 15L22.250022 15C22.7000264 15 23 14.6000234 23 14 23.0000879 13.4000938 22.7000264 13 22.250022 13zM31.749978 20L33.250022 20C33.7000264 20 34 19.6000234 34 19 34 18.3999766 33.7000264 18 33.250022 18L31.749978 18C31.2999736 18 31 18.3999766 31 19 30.9999121 19.5999062 31.2999736 20 31.749978 20zM45.250022 22L43.749978 22C43.2999736 22 43 22.3999766 43 23 43 23.6000234 43.2999736 24 43.749978 24L45.250022 24C45.7000264 24 46 23.6000234 46 23 46 22.3999766 45.7000264 22 45.250022 22zM31.8999684 24L39.1000316 24C39.6400338 24 40 23.6000234 40 23 40 22.3999766 39.6400338 22 39.1000316 22L31.8999684 22C31.3599662 22 31 22.3999766 31 23 31 23.6000234 31.3599662 24 31.8999684 24zM45.1000316 31L37.8999684 31C37.3599662 31 37 31.3999766 37 32 37 32.6000234 37.3599662 33 37.8999684 33L45.1000316 33C45.6400338 33 46 32.6000234 46 32 46 31.3999766 45.6400338 31 45.1000316 31zM31.749978 33L33.250022 33C33.7000264 33 34 32.6000234 34 32 34 31.3999766 33.7000264 31 33.250022 31L31.749978 31C31.2999736 31 31 31.3999766 31 32 31 32.6000234 31.2999736 33 31.749978 33zM31.8999684 38L39.1000316 38C39.6400338 38 40 37.6000234 40 37 40 36.3999766 39.6400338 36 39.1000316 36L31.8999684 36C31.3599663 36 31 36.3999766 31 37 30.9998946 37.6000234 31.3599663 38 31.8999684 38zM22.250022 30L20.749978 30C20.2999736 30 20 30.3999766 20 31 20 31.6000234 20.2999736 32 20.749978 32L22.250022 32C22.7000264 32 23 31.6000234 23 31 23.0000879 30.3999766 22.7000264 30 22.250022 30zM9.99998047 28L14.0000195 28C14.6000313 28 15 27.6000469 15 27.0000586 15 26.4000703 14.6000313 26 14.0000195 26L9.99998047 26C9.39996875 26 9 26.3999531 9 26.9999414 9 27.5999297 9.39996875 28 9.99998047 28zM24.0000293 26L17.9999707 26C17.3999648 26 17 26.3999766 17 27 17 27.6000234 17.3999648 28 17.9999707 28L24.0000293 28C24.6000352 28 25 27.6000234 25 27 25 26.3999766 24.6000352 26 24.0000293 26zM23 36C22.3999766 36 22 36.3999766 22 37 22 37.6000234 22.3999766 38 23 38 23.6000234 38 24 37.6000234 24 37 24 36.5000586 23.6000234 36 23 36zM45 36C44.3999766 36 44 36.3999766 44 37 44 37.6000234 44.3999766 38 45 38 45.6000234 38 46 37.6000234 46 37 46 36.4999414 45.6000234 36 45 36z"/>
  </g>
</svg>
